26

48 22
20
45 14
18 4
30 14
1 19
12 13
4 0
36 18
47 17
28 6
8 21
12 11
41 0
45 13
4 13
39 18
45 18
28 6
46 5
2 15
2 12
191 137

36 2
16
30 0
34 1
21 0
14 1
11 1
9 1
31 0
0 0
33 1
29 1
15 1
22 0
4 0
24 1
2 1
3 1
273 159

3 39
10
2 19
0 5
1 34
0 18
1 29
0 27
0 5
1 6
1 16
2 2
553 28

38 40
13
1 15
3 39
36 0
7 9
27 11
20 7
6 26
6 25
6 16
15 20
33 27
33 35
32 4
289 127

60 36
12
36 23
2 34
37 25
41 0
36 27
47 23
44 20
22 8
14 14
57 10
12 31
8 19
23 131

25 17
12
3 12
2 13
5 9
2 15
0 5
15 13
10 6
9 13
17 12
4 4
7 3
24 7
128 54

46 46
16
12 8
44 36
39 30
31 11
23 16
45 10
23 38
34 28
15 21
38 18
38 21
40 18
16 33
25 45
24 0
21 24
6 176

18 35
12
1 22
7 7
3 11
8 2
5 25
10 21
8 0
0 11
17 13
0 27
17 12
13 22
125 92

32 48
19
22 18
18 25
22 24
18 15
24 0
16 40
9 28
5 12
16 43
17 6
3 47
14 36
13 33
22 23
29 37
1 33
12 47
15 35
29 25
18 107

15 60
13
11 39
14 0
1 45
9 47
14 14
14 23
0 22
8 47
12 53
8 28
8 48
12 36
8 12
461 118

35 19
10
23 9
23 3
28 4
21 3
27 4
28 8
3 1
11 12
0 6
20 0
334 106

44 63
14
13 3
23 18
37 25
17 42
13 32
11 59
0 18
20 45
38 4
3 57
2 59
37 36
4 34
23 34
502 38

57 60
14
8 26
50 3
25 36
12 29
51 24
33 10
6 25
8 19
40 48
30 36
27 12
16 50
33 35
55 24
588 104

38 41
12
32 1
24 22
31 29
15 17
28 22
9 3
32 12
0 16
7 23
10 20
25 21
11 2
427 140

65 38
14
1 16
44 18
11 10
12 28
6 32
57 24
56 3
38 25
58 30
38 33
13 34
40 18
48 14
19 25
143 157

36 59
16
3 18
23 22
13 26
28 27
24 13
24 13
3 51
19 32
31 10
19 23
33 2
14 53
24 2
34 0
24 50
14 17
471 13

30 53
10
26 38
12 15
12 18
16 43
1 5
7 47
23 31
25 15
25 23
10 49
110 37

28 36
19
23 5
20 32
22 6
4 7
5 18
13 10
0 1
4 28
17 26
26 19
21 20
22 10
11 18
4 28
13 13
24 23
8 30
26 0
19 27
24 102

28 56
16
15 17
13 43
11 37
8 4
12 7
3 45
9 13
14 25
4 13
4 9
27 8
13 23
21 34
23 50
12 42
11 8
154 157

67 1
16
0 0
29 0
63 0
30 0
19 0
29 0
36 0
33 0
34 0
26 0
37 0
49 0
49 0
28 0
45 0
47 0
99 106

63 63
17
39 15
46 19
25 34
29 12
32 23
37 47
14 45
2 35
21 13
43 39
24 28
61 46
28 3
31 7
12 38
2 43
10 30
438 145

66 41
14
41 3
32 32
23 29
38 35
39 6
1 1
42 4
22 40
8 5
48 16
7 33
65 1
61 0
50 2
133 93

41 10
17
5 8
40 7
0 8
37 7
18 8
8 5
30 6
22 5
33 3
18 4
24 7
21 0
35 5
12 3
18 6
7 5
16 2
349 24

2 28
10
1 20
1 8
0 9
1 13
1 17
1 2
0 27
0 4
0 13
0 22
317 128

38 60
11
34 10
0 2
29 13
36 19
32 42
20 20
4 26
24 27
15 49
1 46
27 0
592 36

68 48
18
33 10
36 39
67 38
46 36
1 13
29 11
46 20
17 10
13 32
25 0
42 39
4 16
46 4
8 23
35 39
67 21
46 18
53 14
6 148
