22

9 93
20
0 23
5 43
6 31
5 33
0 17
2 12
1 43
2 4
8 90
3 62
7 56
3 8
7 16
5 58
5 62
2 37
7 79
3 73
3 44
5 2
167 147

21 15
16
12 10
12 1
5 11
14 7
14 10
11 13
10 12
0 5
4 9
12 6
7 3
19 6
17 12
4 7
14 14
11 8
491 109

56 95
10
34 52
27 75
47 86
7 65
45 51
3 9
30 52
30 21
53 86
24 94
196 86

43 4
17
37 0
12 2
2 3
25 3
24 3
11 2
41 1
19 1
4 0
25 2
31 0
36 2
22 1
10 3
21 0
40 2
39 2
9 5

60 66
18
56 54
37 35
33 31
22 0
39 16
0 23
47 25
35 54
2 29
52 55
27 37
22 16
52 23
9 9
0 46
5 41
13 64
27 65
375 163

35 14
19
28 6
6 3
28 3
10 9
28 1
2 2
19 9
24 9
14 10
18 12
25 9
7 1
21 13
13 11
17 1
2 0
16 12
5 10
8 2
243 170

6 37
25
1 15
1 5
5 2
3 21
2 12
0 5
3 8
5 9
1 7
2 11
4 18
4 10
3 34
1 11
4 9
0 27
5 11
3 12
2 9
0 3
0 27
2 14
5 2
5 5
4 24
476 163

65 82
12
64 63
60 40
3 71
55 1
2 63
51 35
55 65
19 28
1 32
60 1
21 16
62 81
443 26

61 38
18
13 26
21 30
44 8
57 24
59 15
3 28
25 30
41 12
39 22
43 34
10 12
60 18
43 8
29 30
44 37
43 25
38 15
2 29
329 128

49 47
13
16 1
26 9
31 34
36 42
46 10
25 36
46 13
30 8
2 7
3 7
12 38
10 19
30 3
314 132

43 84
23
3 27
40 72
24 14
41 67
19 31
15 5
30 40
41 24
37 42
35 31
40 64
10 5
34 60
22 75
42 80
1 21
29 48
28 23
11 73
42 35
19 54
3 35
19 21
119 99

18 90
18
7 29
14 40
0 30
6 45
5 15
1 21
11 59
15 73
12 31
7 26
11 40
5 75
12 14
11 13
10 52
15 35
15 57
0 44
492 187

92 92
23
81 76
46 14
12 46
77 11
42 12
17 66
70 52
59 79
76 56
36 33
3 51
88 60
79 34
4 86
15 68
49 77
58 85
12 61
79 82
32 76
23 25
85 43
74 80
163 105

31 22
10
12 19
20 16
3 5
21 15
28 15
3 21
23 4
3 13
9 12
24 15
321 142

22 96
22
12 78
9 57
7 58
17 74
2 59
9 59
21 40
16 61
17 10
20 88
2 21
2 71
0 33
2 66
18 63
10 2
15 86
19 78
15 68
0 20
13 24
7 47
192 86

83 14
26
8 9
33 1
46 5
80 0
17 1
43 1
4 8
59 0
75 5
33 8
21 6
35 0
57 8
72 9
52 7
81 12
36 6
81 1
14 12
17 3
39 4
42 13
60 6
27 12
69 1
14 6
206 142

37 3
12
32 1
0 2
19 2
20 0
8 0
36 2
32 2
28 2
11 2
22 0
34 2
24 2
359 153

17 94
24
15 76
15 60
15 38
1 79
12 58
8 34
13 60
10 30
3 33
2 62
9 51
11 10
9 21
14 57
2 14
16 70
13 27
4 13
16 38
4 8
3 42
12 31
0 74
8 25
447 164

25 87
22
22 24
8 66
6 26
14 29
14 16
0 69
2 84
8 53
3 81
23 24
12 54
4 16
4 7
19 31
15 57
17 0
22 7
11 16
7 69
20 63
18 65
14 84
420 198

94 58
22
12 4
77 35
2 37
47 21
92 11
55 25
23 27
85 22
20 33
21 38
50 56
64 28
82 57
89 17
51 7
74 27
80 33
33 19
6 0
21 0
0 30
81 0
42 11

48 55
23
44 26
11 51
43 17
12 1
0 10
47 36
38 38
28 15
1 6
36 39
16 27
3 35
7 19
21 6
43 53
44 6
44 22
35 23
0 8
0 1
35 23
7 2
24 15
305 171

53 63
27
25 50
50 3
23 49
22 57
36 10
7 6
5 19
29 20
1 55
36 37
32 48
23 22
0 46
19 0
18 37
15 8
47 60
13 52
6 20
30 19
0 40
0 47
34 18
36 20
4 15
26 49
36 10
459 163
