*** Life<FredkinCell> 4x6 ***

Generation = 0, Population = 14.
-000-0
00-0--
0---00
00--00

*** Life<FredkinCell> 1x10 ***

Generation = 0, Population = 8.
00000-00-0

Generation = 2, Population = 5.
-0-0--220-

Generation = 4, Population = 6.
-0-02-4-21

*** Life<FredkinCell> 5x6 ***

Generation = 0, Population = 14.
00---0
-0----
0-----
--0000
000-00

*** Life<FredkinCell> 6x9 ***

Generation = 0, Population = 8.
-0-------
------0--
0-0------
--00-----
---0-----
-0-------

*** Life<FredkinCell> 10x1 ***

Generation = 0, Population = 9.
0
0
0
0
0
0
0
-
0
0

Generation = 2, Population = 4.
-
0
-
-
-
0
-
-
2
2

Generation = 4, Population = 2.
-
-
-
-
-
-
2
-
-
4

*** Life<FredkinCell> 2x6 ***

Generation = 0, Population = 7.
00-00-
--00-0

Generation = 2, Population = 7.
----20
102-10

*** Life<FredkinCell> 8x8 ***

Generation = 0, Population = 16.
--00--0-
-----0--
0----0--
---0--00
--000---
0--0----
--------
--0---0-

Generation = 2, Population = 32.
-122--0-
------0-
0-011-01
10-200-2
-12-2-1-
01-2-0-0
--110---
--01--0-

*** Life<FredkinCell> 7x1 ***

Generation = 0, Population = 3.
-
-
0
-
0
-
0

Generation = 2, Population = 2.
0
-
0
-
-
-
-

*** Life<FredkinCell> 9x9 ***

Generation = 0, Population = 5.
---------
---------
---------
--------0
---------
0-------0
--0----0-
---------
---------

Generation = 2, Population = 15.
---------
--------0
---------
0-----0--
--0----0-
0-1---0--
1---00---
0-------0
--0----0-

*** Life<FredkinCell> 8x5 ***

Generation = 0, Population = 7.
---0-
0-0--
--0--
-----
0----
-0-0-
-----
-----

Generation = 2, Population = 17.
-000-
--2-0
---10
1010-
0----
-0-0-
0----
-0-0-

*** Life<FredkinCell> 10x8 ***

Generation = 0, Population = 9.
0----0--
--0-----
-0------
--------
-----0--
--0-----
------0-
----0---
-------0
--------

Generation = 2, Population = 22.
-110-0-0
1---0---
1--0----
--------
-0-0--10
0-------
----11-1
------1-
-----010
----0---

*** Life<FredkinCell> 2x7 ***

Generation = 0, Population = 4.
------0
0-0---0

Generation = 2, Population = 2.
----0--
0------

*** Life<FredkinCell> 7x6 ***

Generation = 0, Population = 15.
-0---0
----00
------
-00-0-
----00
00----
--0000

*** Life<FredkinCell> 4x9 ***

Generation = 0, Population = 4.
----0----
--0-----0
-----0---
---------

Generation = 2, Population = 13.
--1-010--
0---1-0-0
---01--0-
--0-----0

Generation = 4, Population = 12.
1----1--1
0-1-1---0
-0--11---
--0-----0

*** Life<FredkinCell> 9x7 ***

Generation = 0, Population = 13.
-------
0----00
0-----0
0--0---
--0-0-0
------0
-------
-------
--0---0

*** Life<FredkinCell> 8x6 ***

Generation = 0, Population = 4.
-0----
--0---
------
------
------
------
------
0--0--

*** Life<FredkinCell> 6x4 ***

Generation = 0, Population = 3.
----
----
----
----
00--
---0

*** Life<FredkinCell> 7x1 ***

Generation = 0, Population = 3.
0
-
-
-
0
0
-

Generation = 2, Population = 3.
0
-
-
1
-
-
1

*** Life<FredkinCell> 5x9 ***

Generation = 0, Population = 2.
---------
0--------
---------
---------
--0------

Generation = 2, Population = 7.
---------
0-0------
--0------
0--------
0-0-0----

Generation = 4, Population = 7.
--1------
0-2-0----
--2------
---------
2-----0--

*** Life<FredkinCell> 9x4 ***

Generation = 0, Population = 3.
----
----
-0--
----
0---
----
----
---0
----

Generation = 2, Population = 10.
-0--
----
1--0
----
010-
---0
0---
-0-0
----

*** Life<FredkinCell> 5x2 ***

Generation = 0, Population = 2.
--
--
--
00
--

Generation = 2, Population = 4.
--
00
--
22
--

Generation = 4, Population = 0.
--
--
--
--
--

*** Life<FredkinCell> 1x1 ***

Generation = 0, Population = 1.
0

Generation = 2, Population = 0.
-

*** Life<FredkinCell> 5x2 ***

Generation = 0, Population = 6.
--
00
-0
-0
00

Generation = 2, Population = 5.
-1
2-
0-
0-
-0

Generation = 4, Population = 3.
0-
--
0-
--
1-

*** Life<FredkinCell> 10x9 ***

Generation = 0, Population = 10.
0--------
---------
-------0-
------00-
---------
---------
---------
-00------
0--------
-0--0-0--

Generation = 2, Population = 23.
--0----0-
------01-
0----0---
----01--1
-------1-
-00---00-
0--------
02-1--0--
0-1------
---1----0

*** Life<FredkinCell> 6x10 ***

Generation = 0, Population = 5.
--0--0----
----------
----------
----------
0---0---0-
----------

Generation = 2, Population = 12.
0-0110-0--
----------
0-0-00--0-
----------
0---------
----------

Generation = 4, Population = 10.
-0--1-0-10
----------
--0--2----
----------
----00--0-
----------

*** Life<FredkinCell> 6x6 ***

Generation = 0, Population = 15.
-0----
--000-
-0--00
0-00--
--0--0
0-0--0

Generation = 2, Population = 17.
---110
-1-000
-0----
0102--
01-0--
--2-1-

*** Life<FredkinCell> 9x8 ***

Generation = 0, Population = 16.
--------
-00-----
-0--0---
0-------
---0----
-0--0---
------00
00-0----
0-0---0-

Generation = 2, Population = 29.
-1--0---
---11---
--0---0-
0---1---
----0000
-01---1-
1-011122
0-1010--
2------1

Generation = 4, Population = 41.
-1-02---
011-111-
12---101
01113---
1-1---22
0-1--1--
31-333--
--1230-0
4--11-11

*** Life<FredkinCell> 8x2 ***

Generation = 0, Population = 2.
--
--
--
--
--
00
--
--

Generation = 2, Population = 6.
--
--
--
00
--
22
--
00

*** Life<FredkinCell> 2x2 ***

Generation = 0, Population = 3.
00
-0

Generation = 2, Population = 0.
--
--

*** Life<FredkinCell> 5x9 ***

Generation = 0, Population = 5.
0--------
0-----0--
----0---0
---------
---------

Generation = 2, Population = 14.
--0-0---0
2-0-1---1
1-0-----0
0-----0--
----0---0

Generation = 4, Population = 12.
--2-----2
4---3-0-1
----1-1-2
---------
1---0---0
